Istatistiksel Yazilimlar Vize
…
rmlse=(sqrt(1/length(y)*sum((log(y.pred +1)-log(traindata$SalePrice +1))^2)))
rmlse

## [1] 0.5847732

Boosting yaptigimizda RMSLE degerimiz 0.5847732 cikmistir.

XGBOOST

data1<-dplyr::select(data,OverallQual,LotArea,YearRemodAdd,OnestFlrSF,GrLivArea,GarageCars,SalePrice)
data1

## # A tibble: 2,930 x 7
##    OverallQual LotArea YearRemodAdd OnestFlrSF GrLivArea GarageCars SalePrice
##          <int>   <int>        <int>      <int>     <int>      <int>     <int>
##  1           6   31770         1960       1656      1656          2    215000
##  2           5   11622         1961        896       896          1    105000
##  3           6   14267         1958       1329      1329          1    172000
##  4           7   11160         1968       2110      2110          2    244000
##  5           5   13830         1998        928      1629          2    189900
##  6           6    9978         1998        926      1604          2    195500
##  7           8    4920         2001       1338      1338          2    213500
##  8           8    5005         1992       1280      1280          2    191500
##  9           8    5389         1996       1616      1616          2    236500
## 10           7    7500         1999       1028      1804          2    189000
## # ... with 2,920 more rows
…
